\relax 
\catcode`"\active
\catcode`<\active
\catcode`>\active
\@nameuse{es@quoting}
\select@language{spanish}
\@writefile{toc}{\select@language{spanish}}
\@writefile{lof}{\select@language{spanish}}
\@writefile{lot}{\select@language{spanish}}
\@writefile{lof}{\contentsline {figure}{\numberline {1}{\ignorespaces Dependencia de archivos.}}{8}}
\newlabel{fig:dependencia archivos}{{1}{8}}
\@writefile{lof}{\contentsline {figure}{\numberline {2}{\ignorespaces Archivo de entrada. Diagrama de la red.}}{11}}
\newlabel{fig:entrada1}{{2}{11}}
\@writefile{lof}{\contentsline {figure}{\numberline {3}{\ignorespaces Ejecuci\IeC {\'o}n del programa.}}{11}}
\newlabel{fig:salida1}{{3}{11}}
\@writefile{lof}{\contentsline {figure}{\numberline {4}{\ignorespaces Archivo de entrada. Diagrama de la red.}}{12}}
\newlabel{fig:entrada1}{{4}{12}}
\@writefile{lof}{\contentsline {figure}{\numberline {5}{\ignorespaces Ejecuci\IeC {\'o}n del programa.}}{12}}
\newlabel{fig:salida1}{{5}{12}}
\@writefile{lof}{\contentsline {figure}{\numberline {6}{\ignorespaces Archivo de entrada. Diagrama de la red.}}{13}}
\newlabel{fig:entrada3}{{6}{13}}
\@writefile{lof}{\contentsline {figure}{\numberline {7}{\ignorespaces Ejecuci\IeC {\'o}n del programa.}}{13}}
\newlabel{fig:salida1}{{7}{13}}
\@writefile{lof}{\contentsline {figure}{\numberline {8}{\ignorespaces Archivo de entrada. Diagrama de la red.}}{14}}
\newlabel{fig:entrada1}{{8}{14}}
\@writefile{lof}{\contentsline {figure}{\numberline {9}{\ignorespaces Ejecuci\IeC {\'o}n del programa.}}{14}}
\newlabel{fig:salida1}{{9}{14}}
\@writefile{lof}{\contentsline {figure}{\numberline {10}{\ignorespaces Archivo de entrada. Diagrama de la red.}}{15}}
\newlabel{fig:entrada1}{{10}{15}}
\@writefile{lof}{\contentsline {figure}{\numberline {11}{\ignorespaces Ejecuci\IeC {\'o}n del programa.}}{15}}
\newlabel{fig:salida1}{{11}{15}}
\@writefile{lof}{\contentsline {figure}{\numberline {12}{\ignorespaces Archivo de entrada. Diagrama de la red.}}{16}}
\newlabel{fig:entrada6}{{12}{16}}
\@writefile{lof}{\contentsline {figure}{\numberline {13}{\ignorespaces Ejecuci\IeC {\'o}n del programa.}}{16}}
\newlabel{fig:salida1}{{13}{16}}
\@writefile{lof}{\contentsline {figure}{\numberline {14}{\ignorespaces Archivo de entrada. Diagrama de la red.}}{17}}
\newlabel{fig:entrada1}{{14}{17}}
\@writefile{lof}{\contentsline {figure}{\numberline {15}{\ignorespaces Ejecuci\IeC {\'o}n del programa.}}{17}}
\newlabel{fig:salida1}{{15}{17}}
\@writefile{lof}{\contentsline {figure}{\numberline {16}{\ignorespaces Archivo de entrada. Diagrama de la red.}}{18}}
\newlabel{fig:entrada1}{{16}{18}}
\@writefile{lof}{\contentsline {figure}{\numberline {17}{\ignorespaces Ejecuci\IeC {\'o}n del programa.}}{18}}
\newlabel{fig:salida1}{{17}{18}}
\@writefile{lof}{\contentsline {figure}{\numberline {18}{\ignorespaces Archivo de entrada. Diagrama de la red.}}{19}}
\newlabel{fig:entrada1}{{18}{19}}
\@writefile{lof}{\contentsline {figure}{\numberline {19}{\ignorespaces Ejecuci\IeC {\'o}n del programa.}}{19}}
\newlabel{fig:salida1}{{19}{19}}
