makefile
makefile-win-fileparser
makefile-win-tp0
Makefile-win-cmdline
src/cmdline/Makefile
src/cmdline/runtest.cc
src/cmdline/cmdline.h
src/cmdline/cmdline.cc
src/main.cpp
src/fileParser/makefile
src/fileParser/tests.cpp
src/fileParser/LineParser.h
src/fileParser/Exceptions.h
src/fileParser/LineParser.cpp
src/fileParser/NetworkParser.cpp
src/fileParser/NetworkParser.h
src/fileParser/Exceptions.cpp
