\relax 
\catcode`"\active
\catcode`<\active
\catcode`>\active
\@nameuse{es@quoting}
\select@language{spanish}
\@writefile{toc}{\select@language{spanish}}
\@writefile{lof}{\select@language{spanish}}
\@writefile{lot}{\select@language{spanish}}
\@writefile{lof}{\contentsline {figure}{\numberline {1}{\ignorespaces Dependencia de archivos.}}{9}}
\newlabel{fig:dependencia archivos}{{1}{9}}
\@writefile{lof}{\contentsline {figure}{\numberline {2}{\ignorespaces entrada1.txt.}}{12}}
\newlabel{fig:entrada1}{{2}{12}}
\@writefile{lof}{\contentsline {figure}{\numberline {3}{\ignorespaces salida1.txt.}}{12}}
\newlabel{fig:salida1}{{3}{12}}
\@writefile{lof}{\contentsline {figure}{\numberline {4}{\ignorespaces Prueba 2.}}{13}}
\newlabel{fig:prueba2}{{4}{13}}
\@writefile{lof}{\contentsline {figure}{\numberline {5}{\ignorespaces Prueba 3.}}{13}}
\newlabel{fig:prueba3}{{5}{13}}
\@writefile{lof}{\contentsline {figure}{\numberline {6}{\ignorespaces Prueba 4.}}{14}}
\newlabel{fig:prueba4}{{6}{14}}
\@writefile{lof}{\contentsline {figure}{\numberline {7}{\ignorespaces Prueba 5.}}{14}}
\newlabel{fig:prueba5}{{7}{14}}
\@writefile{lof}{\contentsline {figure}{\numberline {8}{\ignorespaces Prueba 6.}}{15}}
\newlabel{fig:prueba6}{{8}{15}}
